<svg width="128" height="116" viewBox="0 0 128 116" fill="none" xmlns="http://www.w3.org/2000/svg">
<path d="M96.2433 31.1898C95.7108 29.7126 95.1182 28.2458 94.4692 26.8198C93.1764 23.9821 92.8795 21.2928 91.0631 18.9197" stroke="#CCDDE2" stroke-miterlimit="10"/>
<path d="M86.8535 16.1997C85.2906 14.6099 83.8288 12.9011 81.1728 11.6249C75.56 8.93692 68.3831 8.66428 59.2221 12.4659" stroke="#CCDDE2" stroke-miterlimit="10"/>
<path d="M20.7082 120.381C11.8314 107.833 8.96035 93.6473 10.4439 79.1385" stroke="#CCDDE2" stroke-miterlimit="10"/>
<path d="M101.238 58.6099V58.7648C101.151 61.5808 103.753 73.2544 111.134 76.9626C118.514 80.6707 123.776 96.9472 107.136 103.333C90.4961 109.719 91.4024 120.381 91.4024 120.381" stroke="#CCDDE2" stroke-miterlimit="10"/>
<path d="M59.2206 24.5184V10.7277C59.2183 9.78023 58.8408 8.87227 58.1709 8.20233C57.5009 7.53239 56.593 7.15499 55.6456 7.15262H9.97515C9.02772 7.15499 8.11976 7.53239 7.44982 8.20233C6.77988 8.87227 6.40248 9.78023 6.40011 10.7277V75.5725C6.4018 76.5194 6.77924 77.4269 7.44955 78.0959C8.11985 78.7647 9.02822 79.1402 9.97515 79.1398H55.6456C56.0886 79.1427 56.5279 79.0582 56.9383 78.8915" stroke="#824085" stroke-linecap="round" stroke-linejoin="round"/>
<path d="M54.4233 9.33762H11.1977C9.43392 9.33762 8.0041 10.7674 8.0041 12.5312V73.7677C8.0041 75.5315 9.43392 76.9613 11.1977 76.9613H54.4233C56.1871 76.9613 57.6169 75.5315 57.6169 73.7677V12.5312C57.6169 10.7674 56.1871 9.33762 54.4233 9.33762Z" fill="#DDB8F4"/>
<path d="M53.6413 14.5703H12.5225C11.6403 14.5703 10.9251 15.2855 10.9251 16.1677V25.6346C10.9251 26.5169 11.6403 27.232 12.5225 27.232H53.6413C54.5235 27.232 55.2388 26.5169 55.2388 25.6346V16.1677C55.2388 15.2855 54.5235 14.5703 53.6413 14.5703Z" fill="#DDB8F4"/>
<path d="M32.8106 19.9027C33.5337 19.9027 34.12 19.3165 34.12 18.5933C34.12 17.8701 33.5337 17.2838 32.8106 17.2838C32.0874 17.2838 31.5012 17.8701 31.5012 18.5933C31.5012 19.3165 32.0874 19.9027 32.8106 19.9027Z" fill="#D7E8F0"/>
<path d="M29.1506 24.5184C29.1506 23.5478 29.5361 22.617 30.2224 21.9308C30.9088 21.2444 31.8396 20.8589 32.8101 20.8589C33.7807 20.8589 34.7115 21.2444 35.3977 21.9308C36.0841 22.617 36.4696 23.5478 36.4696 24.5184H29.1506Z" fill="#D7E8F0"/>
<path d="M33.0766 40.7987C31.6806 40.7979 30.3158 41.2113 29.1547 41.9864C27.9936 42.7615 27.0886 43.8635 26.554 45.1531C26.0194 46.4427 25.8794 47.8619 26.1515 49.2311C26.4237 50.6003 27.0958 51.858 28.0829 52.8452C29.0701 53.8323 30.3278 54.5044 31.697 54.7766C33.0662 55.0488 34.4854 54.9087 35.775 54.3741C37.0646 53.8396 38.1666 52.9345 38.9417 51.7734C39.7168 50.6123 40.1302 49.2475 40.1294 47.8515C40.1284 45.9813 39.3849 44.188 38.0626 42.8655C36.7401 41.5432 34.9468 40.7997 33.0766 40.7987ZM33.0766 53.2032C32.8034 53.2032 32.5415 53.0948 32.3484 52.9016C32.1554 52.7085 32.0468 52.4466 32.0468 52.1734C32.0468 51.9004 32.1554 51.6384 32.3484 51.4454C32.5415 51.2522 32.8034 51.1437 33.0766 51.1437C33.3497 51.1437 33.6116 51.2522 33.8048 51.4454C33.9978 51.6384 34.1063 51.9004 34.1063 52.1734C34.1063 52.4466 33.9978 52.7085 33.8048 52.9016C33.6116 53.0948 33.3497 53.2032 33.0766 53.2032ZM34.3835 45.2672C34.162 46.7955 33.9751 48.407 33.5259 49.8931C33.4158 50.2464 32.7451 50.2464 32.6299 49.8931C32.3078 48.7746 32.0608 47.6358 31.89 46.4845C31.7518 45.6473 31.2615 44.2931 31.7313 43.4765C32.1396 42.7507 33.3006 42.6611 33.9713 43.0413C34.8046 43.52 34.4795 44.512 34.3835 45.2723V45.2672Z" fill="#D7E8F0"/>
<path d="M15.3561 32.8845H49.8125" stroke="white" stroke-miterlimit="10"/>
<path d="M15.3561 36.2752H49.8125" stroke="white" stroke-miterlimit="10"/>
<path d="M15.3561 58.1158H49.8125" stroke="white" stroke-miterlimit="10"/>
<path d="M23.3601 61.3235H41.8088" stroke="white" stroke-miterlimit="10"/>
<path d="M19.0171 82.3296C19.0171 82.3296 25.1483 57.9661 44.2446 52.0153L52.0065 50.1632C52.0065 50.1632 53.234 44.681 52.7822 44.105C52.3303 43.529 51.4023 42.3488 49.7025 42.6048C48.0027 42.8608 43.6084 42.9427 42.4833 37.5706C41.3582 32.1984 45.5156 19.4291 56.3201 17.5194C67.1246 15.6096 67.3767 23.543 67.3767 23.543L59.4407 41.9328L60.6721 56.768L60.827 78.8672L19.0171 82.3296Z" fill="white"/>
<path d="M85.0076 63.5085C84.8796 63.5456 83.2463 64.0205 82.6038 65.152C82.4814 64.8929 82.288 64.674 82.0459 64.5208C81.8039 64.3676 81.5232 64.2865 81.2367 64.2867H62.0559C61.7147 64.2861 61.3833 64.4014 61.1161 64.6137C60.849 64.826 60.6617 65.1227 60.5852 65.4553L56.8079 81.6512C56.5519 81.6013 56.2959 81.5706 56.0297 81.545L47.1158 79.3203C46.7334 79.2243 46.3289 79.2744 45.9815 79.4607C45.634 79.647 45.3686 79.9561 45.2367 80.3277C45.1773 80.4943 45.1479 80.6703 45.1497 80.8474C45.1497 81.2493 45.3021 81.6363 45.5763 81.9305C45.8503 82.2245 46.2258 82.4037 46.6268 82.432L50.8418 82.7034C46.7817 84.6144 41.8422 88.2547 37.7193 91.5994C33.7078 85.3184 37.4722 79.0387 40.3036 75.657C39.9388 71.9296 38.0905 63.2755 28.8681 63.511C32.045 59.4368 36.0066 55.9449 40.9154 53.6077C57.7295 72.2445 76.9654 57.0073 77.3737 56.6797C80.2503 58.5561 82.8244 60.8596 85.0076 63.511" fill="#2E2E2E"/>
<path d="M83.2603 116.972V120.192H27.7326V115.63C29.8958 115.758 32.1716 115.246 34.2414 114.313C36.8616 113.12 39.1246 111.267 41.0599 109.152C43.0503 106.963 44.1435 103.928 45.4119 101.289C47.3166 97.3146 49.8395 94.4832 53.8433 93.2838L53.5873 94.3846C53.536 94.6062 53.5352 94.8366 53.5851 95.0586C53.6351 95.2804 53.7344 95.4883 53.8757 95.6664C54.017 95.8447 54.1967 95.9887 54.4014 96.0879C54.6062 96.1871 54.8306 96.239 55.058 96.2394H74.3348C73.9508 99.5674 72.3316 117.743 83.2603 116.975" fill="#2E2E2E"/>
<path d="M74.3437 32.2725C74.3282 33.9945 74.1038 35.708 73.6755 37.3759C73.4802 38.1666 73.0607 38.8841 72.4677 39.4424C71.8747 40.0008 71.1332 40.3761 70.3321 40.5234C70.3001 39.3611 69.8061 38.341 69.0521 37.7074C69.121 36.7234 69.1112 35.7355 69.0227 34.7531C68.9728 34.1042 68.8947 33.4987 68.8128 32.9547C68.764 32.6451 68.6935 32.3393 68.6016 32.0395C68.3443 31.7632 68.0412 31.5332 67.7056 31.3599C66.519 30.6917 64.0768 29.9813 59.552 31.0258C58.8132 31.195 58.1181 31.5172 57.5117 31.9717C57.4982 31.9801 57.4862 31.9905 57.4758 32.0024C57.0675 32.3787 56.5478 32.8549 56.0102 33.1019C55.4534 33.3579 54.8723 33.3682 54.3846 32.7627C54.3718 32.7499 54.3654 32.7384 54.3539 32.7256C54.0979 32.3915 53.8534 31.9576 53.4016 31.8719C52.4493 31.6927 51.9859 32.6399 51.8656 33.436C51.7606 34.172 51.9769 34.821 52.2931 35.4392C52.5579 35.9419 52.9039 36.3973 53.3171 36.7871C53.4232 36.8897 53.5204 37.0009 53.6077 37.1199C53.568 37.1269 53.5289 37.1377 53.4912 37.1519C53.4036 37.1813 53.3181 37.2164 53.2352 37.2568C52.0832 37.7752 51.2627 39.0744 51.2448 40.5951C51.2448 40.6424 49.3133 40.6143 49.0688 40.5951C48.1267 40.508 47.1987 40.2367 46.5357 39.5263C44.6541 37.5103 44.663 34.5189 45.4361 32.1791C46.1683 29.9583 47.1001 27.7899 48.3213 25.7919C50.967 21.468 55.072 18.2783 60.2688 17.9915C61.5151 17.9289 62.7644 18.0019 63.9949 18.2091C64.5771 18.3009 65.153 18.4292 65.719 18.5931C71.0169 20.9048 74.3795 26.1451 74.3488 32.2725" fill="#2E2E2E"/>
<path d="M71.2756 81.5654C70.6497 83.1718 69.1598 84.0909 67.9476 83.6134C66.7355 83.136 66.2593 81.4566 66.8839 79.8502C67.5086 78.2438 68.9998 77.3235 70.2119 77.8022C71.4241 78.281 71.9015 79.9603 71.2756 81.5667" fill="#3FBDF1"/>
<path d="M74.4964 95.9117C74.4964 95.9117 71.0967 119.611 84.6954 116.984C98.2199 114.369 103.339 59.3485 64.1911 51.4355" stroke="#824085" stroke-miterlimit="10"/>
<path d="M42.6575 73.0957C42.6575 73.0957 31.6854 82.3488 37.5977 91.6032" stroke="#824085" stroke-miterlimit="10"/>
<path d="M74.7433 89.3287C74.5551 89.3402 74.2863 89.2147 74.1033 89.1648C73.8711 89.1034 73.6412 89.0376 73.4134 88.9677C72.0765 88.5517 70.8188 87.9148 69.6924 87.0835C69.4364 86.9005 68.9807 86.7827 68.6684 86.9031C68.4944 86.9668 68.341 87.0761 68.2239 87.2196C68.1069 87.363 68.0304 87.5352 68.0028 87.7184C67.9068 88.3789 68.3727 89.0253 68.8809 89.449C69.4838 89.9533 70.1097 90.4179 70.8406 90.72C71.546 91.0033 72.2738 91.2271 73.0166 91.3895C73.3532 91.4675 73.695 91.5175 74.029 91.6032" stroke="#824085" stroke-miterlimit="10"/>
<path d="M78.9544 82.9171C79.0926 83.6467 79.1937 84.4045 79.1246 85.1456C79.067 85.7728 78.8417 86.505 78.1441 86.6573C78.0115 86.6924 77.8739 86.7049 77.7371 86.6944C75.1105 86.5395 72.946 85.632 70.4744 83.8451C68.0027 82.0582 67.1323 86.1734 69.3902 86.903" stroke="#824085" stroke-miterlimit="10"/>
<path d="M69.4852 89.9456C69.4245 89.8957 69.3668 89.8422 69.3124 89.7856C68.0823 88.4992 67.8596 91.0835 69.1511 91.8438L69.3175 91.9424C69.4045 91.9795 69.498 92.023 69.5901 92.0704C69.6336 92.0819 69.6823 92.1011 69.7271 92.1139C70.8944 92.6259 72.1373 92.9536 73.361 93.2877C72.1501 92.8922 70.9431 92.503 69.7271 92.1139C69.6221 92.0704 69.5223 92.0269 69.4173 91.977C69.3851 91.9635 69.3517 91.9533 69.3175 91.9462C69.2956 91.9364 69.2717 91.9323 69.2478 91.9346C69.224 91.9368 69.2013 91.9452 69.1818 91.959C69.1525 91.983 69.1311 92.0151 69.1204 92.0512C68.922 92.5274 69.0832 93.1277 69.3367 93.5539C69.6029 94.0045 70.0599 94.3514 70.5104 94.5984C71.7226 95.2781 73.1318 95.68 74.4924 95.9206C74.7449 95.9729 75.0034 95.9898 75.2604 95.9706" stroke="#824085" stroke-miterlimit="10"/>
<path d="M86.2366 98.903C86.2366 98.903 82.0651 91.7939 81.6005 85.6128C81.3163 81.7869 80.1925 80.9766 79.3886 80.9216" stroke="#824085" stroke-miterlimit="10"/>
<path d="M78.1441 86.6559L78.9556 82.917L79.3883 80.9202L82.5959 66.1158C82.6434 65.8953 82.6411 65.6671 82.5889 65.4475C82.5368 65.2282 82.4362 65.0232 82.2946 64.8477C82.1529 64.6723 81.9739 64.5306 81.7705 64.4333C81.5669 64.336 81.3444 64.2854 81.1188 64.2853H61.9367C61.5955 64.2851 61.2642 64.4004 60.9971 64.6127C60.73 64.825 60.5427 65.1215 60.466 65.4539L56.6887 81.6512L53.9316 93.4693L53.6756 94.5765C53.6247 94.7982 53.6243 95.0284 53.6745 95.2502C53.7246 95.4719 53.8242 95.6795 53.9655 95.8575C54.107 96.0356 54.2867 96.1795 54.4912 96.2785C54.6959 96.3777 54.9202 96.4294 55.1476 96.43H74.4231" stroke="#824085" stroke-miterlimit="10"/>
<path d="M54.3616 32.3366C54.3616 32.3366 55.3766 28.032 61.1085 27.4611C66.8403 26.8902 68.2765 31.1731 68.2765 31.1731L68.096 31.6045C68.096 31.6045 60.5606 28.5811 56.3993 32.896C56.3993 32.896 54.9005 33.5757 54.3616 32.3392" fill="#3FBDF1"/>
<path d="M55.9079 81.5448L46.9928 79.3176C46.7801 79.265 46.5588 79.2572 46.343 79.2946C46.1272 79.3321 45.9215 79.414 45.739 79.5352C45.5566 79.6564 45.4013 79.8144 45.2832 79.9988C45.1649 80.1833 45.0864 80.3903 45.0527 80.6067C45.0187 80.8232 45.0303 81.0443 45.0864 81.256C45.1426 81.4678 45.2422 81.6655 45.3791 81.8367C45.5158 82.0078 45.6865 82.1487 45.8807 82.2504C46.0747 82.3519 46.2879 82.412 46.5063 82.4267L50.7214 82.7045" stroke="#824085" stroke-miterlimit="10"/>
<path d="M77.2585 56.6733C77.2585 56.6733 57.7858 72.448 40.7951 53.6077" stroke="#824085" stroke-miterlimit="10"/>
<path d="M40.1846 75.6544C39.8198 71.927 37.9727 63.2666 28.7426 63.5085" stroke="#824085" stroke-miterlimit="10"/>
<path d="M84.891 63.5059C84.891 63.5059 83.1515 63.9846 82.4846 65.1546" stroke="#824085" stroke-miterlimit="10"/>
<path d="M69.0524 37.7126C69.8319 38.368 70.3324 39.4381 70.3324 40.649C70.3324 42.6586 68.9359 44.2842 67.2105 44.2842C67.0153 44.2831 66.8207 44.2604 66.6306 44.2163C68.6402 42.6803 69.0473 37.7126 69.0473 37.7126" fill="#3FBDF1"/>
<path d="M57.6848 45.824C58.6535 46.306 59.7136 46.5769 60.7949 46.6186C61.8761 46.6603 62.9538 46.4719 63.9568 46.0659C69.6119 43.7043 69.3956 36.7437 68.808 32.96C68.7612 32.653 68.6945 32.3494 68.6084 32.0512V32.0448C67.9594 29.8816 66.266 28.119 64.0349 27.6185C59.7136 26.6419 55.7623 29.0918 54.1226 32.3904" stroke="#824085" stroke-miterlimit="10"/>
<path d="M68.6617 32.119C68.6617 32.119 68.6438 32.0934 68.6067 32.0512V32.0448C68.2227 31.6122 65.9993 29.5475 59.5635 31.031C58.8251 31.1999 58.1303 31.5222 57.5245 31.977C57.5103 31.9852 57.4973 31.9955 57.4861 32.0077" stroke="#824085" stroke-miterlimit="10"/>
<path d="M51.5076 42.6048H48.3242C46.0266 42.6048 44.2052 40.5005 43.4128 38.5254C42.2992 35.7478 43.0122 32.905 44.0144 30.2054C44.8541 27.9462 45.9216 25.751 47.3258 23.7862C50.4695 19.3894 55.2157 16.8986 60.6711 17.3594C61.1549 17.4003 61.6366 17.46 62.1162 17.5386C69.4416 18.7264 74.3812 24.8512 74.344 32.2688C74.3287 33.9919 74.1044 35.7069 73.6759 37.376C73.4789 38.1661 73.0589 38.8829 72.4659 39.441C71.8729 39.9991 71.1319 40.3748 70.3312 40.5235" stroke="#824085" stroke-miterlimit="10"/>
<path d="M53.6105 37.12C53.5228 37.001 53.4256 36.8892 53.3199 36.7859C52.9063 36.3968 52.5604 35.9418 52.2959 35.4394C51.9797 34.8211 51.7634 34.1722 51.8684 33.4362C51.9861 32.6451 52.4495 31.6928 53.4044 31.872C53.8562 31.9591 54.0969 32.3917 54.3567 32.7258C55.3449 34.0058 56.7055 32.7194 57.5401 31.9463" stroke="#824085" stroke-miterlimit="10"/>
<path d="M69.0524 37.7126C69.8319 38.368 70.3324 39.4381 70.3324 40.649C70.3324 42.6586 68.9359 44.2842 67.2105 44.2842C67.0153 44.2831 66.8207 44.2604 66.6306 44.2163" stroke="#824085" stroke-miterlimit="10"/>
<path d="M62.3721 40.1792C63.071 40.649 64.7593 41.0342 64.4201 39.6416C64.013 37.9917 63.4652 34.4666 66.8201 34.1978C66.8201 34.1978 68.2972 34.2605 69.0268 34.7622" stroke="#824085" stroke-miterlimit="10"/>
<path d="M63.6353 42.9376C63.6353 42.9376 61.9457 43.8336 61.1086 42.048" stroke="#824085" stroke-miterlimit="10"/>
<path d="M60.209 36.6079C60.1437 37.1749 60.3652 37.6652 60.7044 37.7048C61.0436 37.7445 61.3712 37.3208 61.4378 36.75C61.5044 36.1791 61.2804 35.694 60.9424 35.6543C60.6045 35.6146 60.2743 36.0383 60.209 36.6079Z" fill="#824085"/>
<path d="M65.7106 36.9421C65.6453 37.5078 65.8667 37.9994 66.2059 38.039C66.5451 38.0787 66.8728 37.655 66.9381 37.0842C67.0034 36.5133 66.7819 36.0269 66.444 35.9885C66.1061 35.9501 65.7759 36.3725 65.7106 36.9421Z" fill="#824085"/>
<path d="M62.3721 34.56C62.3721 34.56 61.3378 32.9651 58.9942 34.4781" stroke="#824085" stroke-miterlimit="10"/>
<path d="M64.1895 45.961V54.8083" stroke="#824085" stroke-miterlimit="10"/>
<path d="M29.2127 98.903C29.2127 98.903 32.8594 95.447 37.5954 91.607C41.7183 88.2624 46.6629 84.6157 50.7243 82.7059C51.244 82.464 51.7483 82.2477 52.2386 82.0659C53.4082 81.6201 54.6638 81.445 55.9109 81.5539C56.1719 81.5754 56.4317 81.6104 56.6891 81.6589" stroke="#824085" stroke-miterlimit="10"/>
<path d="M53.9319 93.4693C49.9268 94.6687 47.4039 97.5 45.5005 101.474C44.2346 104.114 43.1389 107.149 41.1485 109.337C39.2144 111.451 36.9514 113.305 34.3312 114.498C29.5773 116.662 23.7239 116.495 20.6352 111.791C18.5463 108.601 17.7245 104.639 17.3072 100.911C16.5904 94.4331 18.8535 76.1727 28.7428 63.5071C31.9197 59.4328 35.8826 55.941 40.7901 53.6037C44.2346 51.9679 48.1284 50.8978 52.5418 50.5944L53.7783 44.2162" stroke="#824085" stroke-miterlimit="10"/>
<path d="M57.4799 40.649C57.4921 41.6086 57.1513 42.5391 56.5225 43.264C56.1698 43.4271 55.7858 43.5114 55.3974 43.511C53.6732 43.511 52.2754 41.8854 52.2754 39.8758C52.263 38.9164 52.6044 37.9859 53.2342 37.2621C53.5865 37.0981 53.9705 37.0134 54.3593 37.0138C56.0834 37.0138 57.4799 38.6406 57.4799 40.649Z" fill="#3FBDF1"/>
<path d="M54.3617 44.2842C56.0838 44.2842 57.4798 42.6566 57.4798 40.649C57.4798 38.6413 56.0838 37.0138 54.3617 37.0138C52.6396 37.0138 51.2436 38.6413 51.2436 40.649C51.2436 42.6566 52.6396 44.2842 54.3617 44.2842Z" stroke="#824085" stroke-miterlimit="10"/>
<path d="M91.4331 8.88063C89.512 8.30798 87.4644 8.31782 85.549 8.90891C83.6336 9.50002 81.9365 10.6458 80.6724 12.2014C79.4081 13.7571 78.6336 15.6526 78.4467 17.6484C78.2598 19.6442 78.669 21.6506 79.6224 23.4139C80.5759 25.1771 82.0307 26.6181 83.8031 27.5544C85.5754 28.4909 87.5856 28.8806 89.5796 28.6747C91.5735 28.4686 93.4615 27.6759 95.0049 26.3968C96.5482 25.1177 97.6777 23.4097 98.2503 21.4886C99.0182 18.9126 98.7314 16.1372 97.4529 13.7727C96.1744 11.4083 94.0089 9.64854 91.4331 8.88063ZM86.3412 25.961C86.1547 25.9053 85.9812 25.8135 85.8302 25.6908C85.6793 25.568 85.554 25.4167 85.4615 25.2456C85.3691 25.0744 85.3112 24.8868 85.2912 24.6932C85.2714 24.4997 85.2897 24.3041 85.3454 24.1178C85.4011 23.9314 85.4928 23.7577 85.6156 23.6068C85.7383 23.4559 85.8895 23.3306 86.0608 23.2381C86.4064 23.0514 86.8121 23.0095 87.1886 23.1219C87.565 23.2343 87.8814 23.4916 88.0682 23.8373C88.255 24.1829 88.2968 24.5887 88.1844 24.9651C88.072 25.3416 87.8148 25.658 87.469 25.8447C87.1234 26.0315 86.7177 26.0733 86.3412 25.961ZM91.4612 15.6006C91.4398 15.6518 91.4194 15.7018 91.3998 15.7504C90.5692 17.7935 89.5361 19.7485 88.3163 21.5859C88.0206 22.0339 87.0939 21.7574 87.0913 21.2198C87.1086 19.5492 87.2368 17.8815 87.4753 16.2278C87.6238 15.0195 87.5086 12.951 88.4852 12.0217C89.3518 11.1897 90.9863 11.5469 91.7569 12.3456C92.6081 13.2326 91.8708 14.6266 91.4574 15.6006H91.4612Z" fill="#DDB8F4"/>
<path d="M98.4449 66.9952C97.7417 67.7102 97.2663 68.6176 97.0789 69.6028C96.8915 70.588 97.0004 71.6068 97.3921 72.53C97.7836 73.4533 98.4403 74.2397 99.2788 74.7897C100.117 75.3398 101.1 75.6288 102.103 75.6202C103.106 75.6116 104.084 75.3059 104.913 74.7415C105.742 74.1771 106.385 73.3796 106.761 72.4497C107.136 71.5199 107.228 70.4995 107.023 69.5176C106.819 68.5358 106.328 67.6366 105.613 66.9336C104.654 65.9917 103.36 65.4689 102.016 65.4804C100.672 65.492 99.3875 66.0367 98.4449 66.9952ZM104.804 73.2453C104.666 73.3856 104.478 73.4653 104.282 73.467C104.085 73.4687 103.896 73.3921 103.756 73.2543C103.615 73.1165 103.536 72.9286 103.534 72.732C103.532 72.5354 103.609 72.3462 103.747 72.2059C103.815 72.1366 103.896 72.0813 103.986 72.0433C104.075 72.0052 104.172 71.9853 104.269 71.9844C104.366 71.9836 104.463 72.0019 104.553 72.0384C104.643 72.0749 104.726 72.1288 104.795 72.197C104.864 72.2653 104.92 72.3465 104.958 72.4362C104.996 72.5258 105.016 72.6219 105.017 72.7194C105.017 72.8168 104.999 72.9133 104.963 73.0035C104.926 73.0938 104.872 73.1759 104.804 73.2453ZM101.394 68.5798C102.069 69.463 102.802 70.3717 103.332 71.3496C103.46 71.5851 103.121 71.9307 102.883 71.8053C102.147 71.407 101.44 70.9597 100.764 70.4666C100.265 70.1184 99.323 69.6845 99.1412 69.0355C98.9761 68.457 99.5163 67.8182 100.05 67.6646C100.705 67.4778 101.054 68.1472 101.394 68.5798Z" fill="#3FBDF1"/>
<path d="M118.323 26.3872C118.829 25.7659 119.138 25.0086 119.213 24.2114C119.287 23.4143 119.124 22.6127 118.743 21.9083C118.363 21.204 117.782 20.6283 117.074 20.2541C116.366 19.8799 115.563 19.724 114.766 19.8062C113.97 19.8884 113.216 20.2049 112.599 20.7156C111.982 21.2265 111.531 21.9086 111.302 22.676C111.073 23.4432 111.077 24.2611 111.313 25.0263C111.549 25.7915 112.006 26.4695 112.627 26.9747C113.04 27.3102 113.515 27.5611 114.024 27.7131C114.534 27.8652 115.068 27.9154 115.597 27.8607C116.126 27.8062 116.639 27.648 117.107 27.3952C117.575 27.1423 117.988 26.7999 118.323 26.3872ZM112.798 21.8957C112.847 21.8353 112.907 21.7852 112.975 21.7482C113.044 21.7112 113.119 21.6881 113.196 21.68C113.273 21.6719 113.352 21.6792 113.426 21.7015C113.501 21.7236 113.57 21.7602 113.63 21.8093C113.691 21.8583 113.741 21.9187 113.778 21.9871C113.815 22.0554 113.838 22.1304 113.846 22.2077C113.854 22.285 113.847 22.3631 113.824 22.4376C113.802 22.5121 113.766 22.5815 113.717 22.6419C113.618 22.7638 113.474 22.8413 113.318 22.8576C113.162 22.8737 113.006 22.8273 112.884 22.7283C112.762 22.6294 112.685 22.486 112.668 22.3298C112.652 22.1737 112.699 22.0175 112.798 21.8957ZM115.861 25.3517C115.258 24.7001 114.609 24.0371 114.111 23.2947C113.991 23.1168 114.239 22.8173 114.434 22.8992C115.05 23.162 115.648 23.4656 116.224 23.808C116.647 24.0473 117.429 24.32 117.622 24.8243C117.796 25.271 117.415 25.8201 117.001 25.9763C116.49 26.1734 116.163 25.6678 115.861 25.344V25.3517Z" fill="#3FBDF1"/>
<path d="M78.0801 53.0803C79.5086 55.5123 79.4433 57.2442 79.0721 60.0512C78.9236 61.12 80.0744 61.8432 81.0075 61.3056C89.252 56.5696 96.9473 60.3149 106.778 57.993C110.387 57.1456 114.888 55.3894 117.972 52.5658C118.996 51.0459 119.543 49.2552 119.543 47.4227C119.543 39.7427 109.047 33.5078 96.1024 33.5078C87.8068 33.5078 80.5185 36.0678 76.3521 39.9245C76.3521 39.9245 76.352 39.9245 76.3405 39.936C75.2832 41.5194 74.7021 43.2499 74.7021 45.056C74.6957 47.8118 76.7451 50.7994 78.0801 53.0803Z" fill="#DDB8F4"/>
<path d="M74.7332 45.056C74.7332 45.12 74.7332 45.184 74.7332 45.2506C74.7792 47.9386 76.1284 50.4435 77.7258 52.6106C78.7959 54.0595 80.0656 55.6698 79.7648 57.4464C79.6368 58.2298 79.1952 58.9402 79.0852 59.7261C78.9751 60.512 79.3936 61.4925 80.1872 61.5334C80.6916 61.559 81.1204 61.2006 81.5197 60.8934C83.8813 59.063 86.9508 58.3782 89.9357 58.2579C92.9207 58.1376 95.9018 58.5318 98.888 58.6163C103.194 58.7443 107.568 58.2016 111.545 56.5504C115.108 55.0733 118.373 52.649 120.517 49.4106C122.624 46.231 121.379 41.6141 119.131 38.8493C117.024 36.2547 113.972 34.5946 110.841 33.4246C102.42 30.281 92.808 30.3526 84.5034 33.7971C82.0381 34.8211 79.6535 36.1523 77.8052 38.0787C76.0042 39.9552 74.7524 42.4563 74.7332 45.056Z" stroke="#824085" stroke-miterlimit="10"/>
<path d="M109.285 48.1152C111.071 48.1152 112.519 46.6677 112.519 44.8819C112.519 43.0962 111.071 41.6487 109.285 41.6487C107.5 41.6487 106.052 43.0962 106.052 44.8819C106.052 46.6677 107.5 48.1152 109.285 48.1152Z" fill="white"/>
<path d="M98.8274 48.1152C100.613 48.1152 102.061 46.6677 102.061 44.8819C102.061 43.0962 100.613 41.6487 98.8274 41.6487C97.0416 41.6487 95.5941 43.0962 95.5941 44.8819C95.5941 46.6677 97.0416 48.1152 98.8274 48.1152Z" fill="white"/>
<path d="M88.1664 48.1152C89.9521 48.1152 91.3997 46.6677 91.3997 44.8819C91.3997 43.0962 89.9521 41.6487 88.1664 41.6487C86.3807 41.6487 84.9331 43.0962 84.9331 44.8819C84.9331 46.6677 86.3807 48.1152 88.1664 48.1152Z" fill="white"/>
</svg>
