<svg width="65" height="65" viewBox="0 0 65 65" fill="none" xmlns="http://www.w3.org/2000/svg">
<circle cx="32.5" cy="32.5" r="31.5" stroke="#EE917E" stroke-opacity="0.5" stroke-width="2"/>
<circle cx="32.5" cy="32.5" r="26.5" fill="#F9E1DD"/>
<path d="M39.1875 41.9993C38.3345 41.9993 37.5008 41.7464 36.7916 41.2725C36.0824 40.7986 35.5297 40.1251 35.2032 39.3371C34.8768 38.5491 34.7914 37.682 34.9578 36.8455C35.1242 36.0089 35.535 35.2405 36.1381 34.6374C36.7412 34.0343 37.5096 33.6236 38.3462 33.4572C39.1827 33.2908 40.0498 33.3762 40.8378 33.7026C41.6258 34.029 42.2993 34.5817 42.7732 35.2909C43.2471 36.0001 43.5 36.8339 43.5 37.6868C43.4987 38.8302 43.044 39.9263 42.2355 40.7348C41.427 41.5433 40.3308 41.9981 39.1875 41.9993V41.9993ZM39.1875 34.8743C38.6312 34.8743 38.0874 35.0392 37.6249 35.3483C37.1624 35.6573 36.8019 36.0966 36.5891 36.6105C36.3762 37.1244 36.3205 37.6899 36.429 38.2355C36.5375 38.7811 36.8054 39.2822 37.1987 39.6755C37.5921 40.0689 38.0932 40.3367 38.6388 40.4453C39.1844 40.5538 39.7499 40.4981 40.2638 40.2852C40.7777 40.0723 41.2169 39.7119 41.526 39.2493C41.835 38.7868 42 38.2431 42 37.6868C41.9991 36.9411 41.7025 36.2263 41.1753 35.699C40.648 35.1718 39.9331 34.8752 39.1875 34.8743V34.8743Z" fill="#EE917E"/>
<path d="M26.8125 41.9993C25.9595 41.9993 25.1258 41.7464 24.4166 41.2725C23.7074 40.7986 23.1546 40.1251 22.8282 39.3371C22.5018 38.5491 22.4164 37.682 22.5828 36.8455C22.7492 36.0089 23.16 35.2405 23.7631 34.6374C24.3662 34.0343 25.1346 33.6236 25.9711 33.4572C26.8077 33.2908 27.6748 33.3762 28.4628 33.7026C29.2508 34.029 29.9243 34.5817 30.3982 35.2909C30.872 36.0001 31.125 36.8339 31.125 37.6868C31.1237 38.8302 30.669 39.9263 29.8605 40.7348C29.052 41.5433 27.9558 41.9981 26.8125 41.9993V41.9993ZM26.8125 34.8743C26.2562 34.8743 25.7124 35.0392 25.2499 35.3483C24.7874 35.6573 24.4269 36.0966 24.2141 36.6105C24.0012 37.1244 23.9455 37.6899 24.054 38.2355C24.1625 38.7811 24.4304 39.2822 24.8237 39.6755C25.2171 40.0689 25.7182 40.3367 26.2638 40.4453C26.8094 40.5538 27.3749 40.4981 27.8888 40.2852C28.4027 40.0723 28.8419 39.7119 29.151 39.2493C29.46 38.7868 29.625 38.2431 29.625 37.6868C29.6241 36.9411 29.3275 36.2263 28.8003 35.699C28.273 35.1718 27.5581 34.8752 26.8125 34.8743V34.8743Z" fill="#EE917E"/>
<path d="M35.9999 26.9996C36.1975 27.0003 36.3933 26.9618 36.5759 26.8864C36.7585 26.811 36.9243 26.7001 37.0638 26.5601C37.2033 26.4202 37.3136 26.254 37.3885 26.0712C37.4634 25.8884 37.5012 25.6925 37.4999 25.4949C37.5021 25.2984 37.4651 25.1033 37.391 24.9212C37.3169 24.7391 37.2073 24.5736 37.0685 24.4344C36.9297 24.2951 36.7646 24.185 36.5827 24.1103C36.4008 24.0357 36.2059 23.998 36.0093 23.9996C35.8123 23.999 35.6172 24.0372 35.4349 24.112C35.2527 24.1868 35.087 24.2968 34.9473 24.4356C34.8076 24.5745 34.6965 24.7395 34.6206 24.9213C34.5446 25.103 34.5052 25.2979 34.5046 25.4949C34.504 25.6919 34.5422 25.8871 34.617 26.0693C34.6918 26.2515 34.8018 26.4172 34.9406 26.557C35.0795 26.6967 35.2445 26.8077 35.4263 26.8836C35.608 26.9596 35.803 26.999 35.9999 26.9996V26.9996Z" fill="#EE917E"/>
<path d="M38.2288 29.9996H36.1776C36.1439 29.9996 36.1109 29.9906 36.082 29.9734C36.053 29.9563 36.0292 29.9316 36.0131 29.9021L34.5252 27.1754C34.4204 26.9728 34.2693 26.7976 34.0843 26.6642C33.8992 26.5308 33.6853 26.4429 33.4599 26.4075C33.2345 26.3722 33.004 26.3903 32.7869 26.4606C32.5699 26.5309 32.3724 26.6513 32.2106 26.8121V26.8121L28.9359 30.1121C28.6608 30.3929 28.5046 30.769 28.4999 31.1621C28.4999 31.9777 29.0906 32.2684 29.3671 32.4324C30.7031 33.2021 31.6438 33.7651 32.1599 34.0777C32.1874 34.0944 32.2101 34.1179 32.2258 34.1459C32.2416 34.1739 32.2499 34.2054 32.2499 34.2376V37.4776C32.2499 37.8812 32.5602 38.2276 32.9638 38.2477C33.0652 38.2526 33.1664 38.2369 33.2615 38.2015C33.3566 38.1661 33.4435 38.1118 33.517 38.0419C33.5905 37.9719 33.649 37.8878 33.689 37.7946C33.7291 37.7014 33.7498 37.601 33.7499 37.4996V33.4684C33.75 33.3493 33.7217 33.2319 33.6674 33.126C33.6131 33.02 33.5344 32.9285 33.4377 32.859L31.7034 31.6116C31.6816 31.5961 31.6634 31.576 31.65 31.5528C31.6367 31.5296 31.6284 31.5038 31.6258 31.4772C31.6233 31.4505 31.6264 31.4237 31.6351 31.3983C31.6438 31.373 31.6578 31.3498 31.6762 31.3304L33.6449 29.2309C33.6651 29.2093 33.6901 29.1927 33.7179 29.1826C33.7457 29.1725 33.7755 29.1692 33.8048 29.1728C33.8342 29.1764 33.8622 29.1869 33.8868 29.2034C33.9113 29.2199 33.9315 29.242 33.9459 29.2679L34.9687 31.1138C35.0337 31.2308 35.1288 31.3283 35.2442 31.3962C35.3596 31.464 35.4911 31.4997 35.6249 31.4996H38.2499C38.3515 31.4997 38.4521 31.4792 38.5455 31.4393C38.639 31.3993 38.7233 31.3408 38.7934 31.2673C38.8636 31.1938 38.918 31.1068 38.9535 31.0116C38.989 30.9164 39.0048 30.815 38.9999 30.7135C38.9802 30.3099 38.6324 29.9996 38.2288 29.9996Z" fill="#EE917E"/>
</svg>
