<svg width="55" height="55" viewBox="0 0 55 55" fill="none" xmlns="http://www.w3.org/2000/svg">
<g opacity="0.9">
<path fill-rule="evenodd" clip-rule="evenodd" d="M27.0833 34.7599L20.5765 38.4C20.057 38.6757 19.4169 38.4806 19.1305 37.9591V37.9591C19.0477 37.7976 19.003 37.6185 19 37.4362V21.3067C19 18.2305 21.0585 17 24.0207 17H30.9793C33.8512 17 36 18.1484 36 21.1016V37.4362C36 37.7271 35.8868 38.0062 35.6853 38.212C35.4838 38.4177 35.2105 38.5333 34.9256 38.5333C34.7438 38.5304 34.5652 38.4848 34.4034 38.4L27.8565 34.7599C27.6152 34.6268 27.3245 34.6268 27.0833 34.7599Z" stroke="#1A284B" stroke-width="2" stroke-linecap="round" stroke-linejoin="round"/>
<path d="M23.4685 24.3315H31.4715" stroke="#1A284B" stroke-width="2" stroke-linecap="round" stroke-linejoin="round"/>
</g>
<circle cx="27.5" cy="27.5" r="27.3" stroke="#767E93" stroke-width="0.4"/>
</svg>
