<svg width="44" height="44" viewBox="0 0 44 44" fill="none" xmlns="http://www.w3.org/2000/svg">
<circle cx="22" cy="22" r="22" fill="#FFD8D0"/>
<path fill-rule="evenodd" clip-rule="evenodd" d="M12 21.9993C12 16.4803 16.48 11.9993 22 11.9993C27.53 11.9993 32 16.4803 32 21.9993C32 27.5203 27.53 31.9993 22 31.9993C16.48 31.9993 12 27.5203 12 21.9993ZM21.12 18.2093C21.12 17.7303 21.52 17.3293 22 17.3293C22.48 17.3293 22.87 17.7303 22.87 18.2093V22.6293C22.87 23.1103 22.48 23.4993 22 23.4993C21.52 23.4993 21.12 23.1103 21.12 22.6293V18.2093ZM22.01 26.6803C21.52 26.6803 21.13 26.2803 21.13 25.8003C21.13 25.3203 21.52 24.9303 22 24.9303C22.49 24.9303 22.88 25.3203 22.88 25.8003C22.88 26.2803 22.49 26.6803 22.01 26.6803Z" fill="#FA6B4E"/>
</svg>
