<svg width="325" height="27" viewBox="0 0 325 27" fill="none" xmlns="http://www.w3.org/2000/svg">
<line opacity="0.2" x1="6" y1="22.5" x2="163" y2="22.5" stroke="#1A284B"/>
<line opacity="0.2" x1="161" y1="22.5" x2="317" y2="22.5" stroke="#1A284B"/>
<ellipse cx="317.463" cy="22.5" rx="2.46302" ry="2.5" fill="#1A284B"/>
<path d="M317.463 26C319.39 26 320.926 24.4189 320.926 22.5C320.926 20.5811 319.39 19 317.463 19C315.536 19 314 20.5811 314 22.5C314 24.4189 315.536 26 317.463 26Z" stroke="#1A284B" stroke-opacity="0.3" stroke-width="2"/>
<path d="M313.684 11.156C315.136 11.156 316.552 10.148 316.552 8.408V5.192C316.552 3.452 315.136 2.444 313.684 2.444C312.244 2.444 310.828 3.452 310.828 5.192V8.408C310.828 10.148 312.244 11.156 313.684 11.156ZM313.684 9.656C312.94 9.656 312.4 9.116 312.4 8.3V5.3C312.4 4.496 312.952 3.944 313.684 3.944C314.428 3.944 314.98 4.496 314.98 5.3V8.3C314.98 9.116 314.44 9.656 313.684 9.656ZM320.983 11.144C322.831 11.144 323.899 9.836 323.899 8.36C323.899 7.04 322.963 6.032 321.739 5.876V5.804L323.647 3.992V2.6H318.403V4.016H321.691V4.1L319.831 5.876V7.112H320.947C321.775 7.112 322.303 7.676 322.303 8.372C322.303 9.128 321.775 9.644 320.971 9.644C320.227 9.644 319.735 9.14 319.711 8.504H318.235C318.235 9.788 319.171 11.144 320.983 11.144Z" fill="#1A284B"/>
<ellipse cx="161.463" cy="22.5" rx="2.46302" ry="2.5" fill="#1A284B" fill-opacity="0.9"/>
<path d="M161.463 26C163.39 26 164.926 24.4189 164.926 22.5C164.926 20.5811 163.39 19 161.463 19C159.536 19 158 20.5811 158 22.5C158 24.4189 159.536 26 161.463 26Z" stroke="#1A284B" stroke-opacity="0.3" stroke-width="2"/>
<path d="M157.684 11.156C159.136 11.156 160.552 10.148 160.552 8.408V5.192C160.552 3.452 159.136 2.444 157.684 2.444C156.244 2.444 154.828 3.452 154.828 5.192V8.408C154.828 10.148 156.244 11.156 157.684 11.156ZM157.684 9.656C156.94 9.656 156.4 9.116 156.4 8.3V5.3C156.4 4.496 156.952 3.944 157.684 3.944C158.428 3.944 158.98 4.496 158.98 5.3V8.3C158.98 9.116 158.44 9.656 157.684 9.656ZM162.187 11H167.731V9.596H163.771V9.476C163.771 9.044 163.963 8.732 164.575 8.348L166.183 7.376C167.179 6.776 167.707 6.044 167.707 4.952C167.707 3.596 166.639 2.444 164.899 2.444C163.123 2.444 162.175 3.764 162.175 5.084H163.651C163.651 4.46 164.131 3.908 164.875 3.908C165.667 3.908 166.111 4.4 166.111 5.012C166.111 5.552 165.823 5.912 165.367 6.2L163.819 7.16C162.703 7.844 162.187 8.552 162.187 9.668V11Z" fill="#1A284B"/>
<ellipse cx="6.46302" cy="22.5" rx="2.46302" ry="2.5" fill="#03A87D"/>
<path d="M6.46302 26C8.38959 26 9.92604 24.4189 9.92604 22.5C9.92604 20.5811 8.38959 19 6.46302 19C4.53645 19 3 20.5811 3 22.5C3 24.4189 4.53645 26 6.46302 26Z" stroke="#03A87D" stroke-opacity="0.3" stroke-width="2"/>
<path d="M3.684 11.156C5.136 11.156 6.552 10.148 6.552 8.408V5.192C6.552 3.452 5.136 2.444 3.684 2.444C2.244 2.444 0.828 3.452 0.828 5.192V8.408C0.828 10.148 2.244 11.156 3.684 11.156ZM3.684 9.656C2.94 9.656 2.4 9.116 2.4 8.3V5.3C2.4 4.496 2.952 3.944 3.684 3.944C4.428 3.944 4.98 4.496 4.98 5.3V8.3C4.98 9.116 4.44 9.656 3.684 9.656ZM10.0393 11H11.6233V2.6H10.1473C10.1473 3.452 9.64331 3.86 8.04731 3.86V5.048H10.0393V11Z" fill="#03A87D"/>
</svg>
